…
```{r}
table1
#> # A tibble: 6 × 4
#>   country      year  cases population
#>   <chr>       <dbl>  <dbl>      <dbl>
#> 1 Afghanistan  1999    745   19987071
#> 2 Afghanistan  2000   2666   20595360
#> 3 Brazil       1999  37737  172006362
#> 4 Brazil       2000  80488  174504898
#> 5 China        1999 212258 1272915272
#> 6 China        2000 213766 1280428583

table2
#> # A tibble: 12 × 4
#>   country      year type           count
#>   <chr>       <dbl> <chr>          <dbl>
#> 1 Afghanistan  1999 cases            745
#> 2 Afghanistan  1999 population  19987071
#> 3 Afghanistan  2000 cases           2666
#> 4 Afghanistan  2000 population  20595360
#> 5 Brazil       1999 cases          37737
#> 6 Brazil       1999 population 172006362
#> # ℹ 6 more rows
…
اصول داده‌های مرتب ممکن است آنقدر بدیهی به نظر برسند که از خود بپرسید آیا تا به حال با مجموعه داده‌ای مواجه شده‌اید که مرتب نباشد؟ اما متأسفانه، در عمل اکثر داده‌ها مرتب نیستند. دو دلیل اصلی وجود دارد:

1. داده‌ها اغلب برای تسهیل اهدافی به غیر از تحلیل سازمان‌دهی می‌شوند. برای مثال، داده‌ها اغلب برای آسان کردن ورود اطلاعات، نه تحلیل، ساختاربندی می‌شوند.
2. بیشتر افراد با اصول داده‌های مرتب آشنا نیستند، و استخراج آنها توسط خودتان دشوار است، مگر اینکه زمان زیادی را صرف کار با داده‌ها کنید.

این بدان معنی است که برای اکثر تحلیل‌های واقعی، باید کمی کار مرتب‌سازی انجام دهید. اولین قدم همیشه تشخیص متغیرها و مشاهدات است. گاهی اوقات این کار آسان است؛ گاهی اوقات باید با افراد تولیدکننده داده مشورت کنید. سپس، داده‌های خود را در قالب مرتب با قرار دادن متغیرها در ستون‌ها و مشاهدات در سطرها چرخش می‌دهید.

بسته tidyr دو تابع برای چرخش داده‌ها ارائه می‌دهد: ‍‍‍‍`()pivot_longer` و `()pivot_wider`. ابتدا با تابع `()pivot_longer` به دلیل متداول بودن بیشتر شروع می‌کنیم. بیایید به چند مثال بپردازیم.

### 1.3.5 داده‌ها در نام ستون‌ها
مجموعه داده‌های `billboard`، ثبت رتبه آهنگ‌ها در سال ۲۰۰۰ را نشان می‌دهد:
```{r}
billboard
#> # A tibble: 317 × 79
#>   artist       track               date.entered   wk1   wk2   wk3   wk4   wk5
#>   <chr>        <chr>               <date>       <dbl> <dbl> <dbl> <dbl> <dbl>
#> 1 2 Pac        Baby Don't Cry (Ke… 2000-02-26      87    82    72    77    87
#> 2 2Ge+her      The Hardest Part O… 2000-09-02      91    87    92    NA    NA
#> 3 3 Doors Down Kryptonite          2000-04-08      81    70    68    67    66
#> 4 3 Doors Down Loser               2000-10-21      76    76    72    69    67
#> 5 504 Boyz     Wobble Wobble       2000-04-15      57    34    25    17    17
#> 6 98^0         Give Me Just One N… 2000-08-19      51    39    34    26    26
#> # ℹ 311 more rows
#> # ℹ 71 more variables: wk6 <dbl>, wk7 <dbl>, wk8 <dbl>, wk9 <dbl>, …
```

در این مجموعه داده، هر مشاهده (سطر) یک آهنگ است. سه ستون نخست (`artist`، `track` و `date.entered`) متغیرهای توصیف‌کننده آهنگ هستند. سپس، ۷۶ ستون بعدی (`wk76`-`wk1`) رتبه آهنگ در هر هفته را توصیف می‌کنند. در اینجا، نام ستون‌ها یک متغیر (`week`) و مقادیر سلول‌ها متغیر دیگری (`rank`) هستند.

برای مرتب کردن این مجموعه داده از `()pivot_longer` استفاده می‌کنیم:

```{r}
billboard |> 
  pivot_longer(
    cols = starts_with("wk"), 
    names_to = "week", 
    values_to = "rank"
  )
#> # A tibble: 24,092 × 5
#>    artist track                   date.entered week   rank
#>    <chr>  <chr>                   <date>       <chr> <dbl>
#>  1 2 Pac  Baby Don't Cry (Keep... 2000-02-26   wk1      87
#>  2 2 Pac  Baby Don't Cry (Keep... 2000-02-26   wk2      82
#>  3 2 Pac  Baby Don't Cry (Keep... 2000-02-26   wk3      72
#>  4 2 Pac  Baby Don't Cry (Keep... 2000-02-26   wk4      77
#>  5 2 Pac  Baby Don't Cry (Keep... 2000-02-26   wk5      87
#>  6 2 Pac  Baby Don't Cry (Keep... 2000-02-26   wk6      94
#>  7 2 Pac  Baby Don't Cry (Keep... 2000-02-26   wk7      99
#>  8 2 Pac  Baby Don't Cry (Keep... 2000-02-26   wk8      NA
#>  9 2 Pac  Baby Don't Cry (Keep... 2000-02-26   wk9      NA
#> 10 2 Pac  Baby Don't Cry (Keep... 2000-02-26   wk10     NA
#> # ℹ 24,082 more rows
```
…
توجه کنید که در کد بالا، `"week"` و `"rank"` در علامت نقل قول قرار گرفته‌اند، به این دلیل که متغیرهای جدیدی هستند و در حال ایجاد کردنشان هستیم، و هنوز در زمان فراخوانی `()pivot_longer` وجود ندارند.

حالا بیایید توجه خود را به چارچوب داده طولانی‌تر به‌دست‌آمده معطوف کنیم. چه اتفاقی می‌افتد اگر یک آهنگ کمتر از ۷۶ هفته در بین ۱۰۰ آهنگ برتر باشد؟ برای مثال آهنگ «Baby Don’t Cry» از گروه «2 pac» را در نظر بگیرید. خروجی بالا نشان می‌دهد که این آهنگ فقط به مدت ۷ هفته در بین ۱۰۰ آهنگ برتر بوده است و تمام هفته‌های باقی‌مانده با مقادیر گمشده پر شده‌اند. این `NA`ها واقعاً مشاهدات ناشناخته را نشان نمی‌دهند؛ آنها به واسطه ساختار مجموعه داده ایجاد شده‌اند، پس می‌توانیم با قرار دادن `values_drop_na = TRUE` در `()pivot_longer` آنها را حذف کنیم.

```{r}
billboard |> 
  pivot_longer(
    cols = starts_with("wk"), 
    names_to = "week", 
    values_to = "rank",
    values_drop_na = TRUE
  )
#> # A tibble: 5,307 × 5
#>   artist track                   date.entered week   rank
#>   <chr>  <chr>                   <date>       <chr> <dbl>
#> 1 2 Pac  Baby Don't Cry (Keep... 2000-02-26   wk1      87
#> 2 2 Pac  Baby Don't Cry (Keep... 2000-02-26   wk2      82
#> 3 2 Pac  Baby Don't Cry (Keep... 2000-02-26   wk3      72
#> 4 2 Pac  Baby Don't Cry (Keep... 2000-02-26   wk4      77
#> 5 2 Pac  Baby Don't Cry (Keep... 2000-02-26   wk5      87
#> 6 2 Pac  Baby Don't Cry (Keep... 2000-02-26   wk6      94
#> # ℹ 5,301 more rows
```
…
این داده‌ها اکنون مرتب هستند، اما می‌توانیم محاسبات پیش رو را با تبدیل مقادیر `week` از رشته‌های کاراکتری به اعداد با استفاده از `()mutate` و `()readr::parse_number` کمی آسان‌تر کنیم. `()parse_number` یک تابع مفید است که اولین عدد از یک رشته را استخراج می‌کند و تمام کارکترهای دیگر را نادیده می‌گیرد.
```{r}
billboard_longer <- billboard |> 
  pivot_longer(
    cols = starts_with("wk"), 
    names_to = "week", 
    values_to = "rank",
    values_drop_na = TRUE
  ) |> 
  mutate(
    week = parse_number(week)
  )
billboard_longer
#> # A tibble: 5,307 × 5
#>   artist track                   date.entered  week  rank
#>   <chr>  <chr>                   <date>       <dbl> <dbl>
#> 1 2 Pac  Baby Don't Cry (Keep... 2000-02-26       1    87
#> 2 2 Pac  Baby Don't Cry (Keep... 2000-02-26       2    82
#> 3 2 Pac  Baby Don't Cry (Keep... 2000-02-26       3    72
#> 4 2 Pac  Baby Don't Cry (Keep... 2000-02-26       4    77
#> 5 2 Pac  Baby Don't Cry (Keep... 2000-02-26       5    87
#> 6 2 Pac  Baby Don't Cry (Keep... 2000-02-26       6    94
#> # ℹ 5,301 more rows
```
…
### 3.3.5 متغیرهای زیاد در نام ستون‌ها
وضعیت چالش‌برانگیز دیگر زمانی است که چندین قطعه اطلاعات در نام ستون‌ها فشرده شده باشند و بخواهید آنها را در متغیرهای جدید جداگانه ذخیره کنید. برای مثال، مجموعه داده `who2` را در نظر بگیرید که منبع `table1` و جداول مشابهی که در بالا دیده‌اید، است.
```{r}
who2
#> # A tibble: 7,240 × 58
#>   country      year sp_m_014 sp_m_1524 sp_m_2534 sp_m_3544 sp_m_4554
#>   <chr>       <dbl>    <dbl>     <dbl>     <dbl>     <dbl>     <dbl>
#> 1 Afghanistan  1980       NA        NA        NA        NA        NA
#> 2 Afghanistan  1981       NA        NA        NA        NA        NA
#> 3 Afghanistan  1982       NA        NA        NA        NA        NA
#> 4 Afghanistan  1983       NA        NA        NA        NA        NA
#> 5 Afghanistan  1984       NA        NA        NA        NA        NA
#> 6 Afghanistan  1985       NA        NA        NA        NA        NA
#> # ℹ 7,234 more rows
#> # ℹ 51 more variables: sp_m_5564 <dbl>, sp_m_65 <dbl>, sp_f_014 <dbl>, …
```
…
بنابراین، در این مورد شش قطعه اطلاعات ثبت‌شده در `who2` داریم: کشور و سال (از قبل ستون‌ها وجود دارند)، روش تشخیص بیماری، دسته‌بندی جنسیت و دسته‌بندی محدوده سنی (که در نام ستون‌های دیگر وجود دارد)؛ و تعداد بیماران در آن دسته (مقادیر سلول). برای سازمان‌دهی این شش قطعه اطلاعات در شش ستون جداگانه، از `()pivot_longer` با بردار نام ستون‌ها برای `names_to`، جداسازی نام متغیرهای اولیه به قطعات جداگانه برای `names_sep` و همچنین یک نام ستون برای `values_to` استفاده می‌کنیم.
```{r}
who2 |> 
  pivot_longer(
    cols = !(country:year),
    names_to = c("diagnosis", "gender", "age"), 
    names_sep = "_",
    values_to = "count"
  )
#> # A tibble: 405,440 × 6
#>   country      year diagnosis gender age   count
#>   <chr>       <dbl> <chr>     <chr>  <chr> <dbl>
#> 1 Afghanistan  1980 sp        m      014      NA
#> 2 Afghanistan  1980 sp        m      1524     NA
#> 3 Afghanistan  1980 sp        m      2534     NA
#> 4 Afghanistan  1980 sp        m      3544     NA
#> 5 Afghanistan  1980 sp        m      4554     NA
#> 6 Afghanistan  1980 sp        m      5564     NA
#> # ℹ 405,434 more rows
```
…
این مجموعه داده شامل داده‌های مربوط به پنج خانواده، به همراه نام و تاریخ تولد حداکثر دو فرزند است. چالش جدید در این مجموعه داده نام ستون‌ها است که شامل نام دو متغیر (`dob` و `name`) و مقادیر متغیر دیگر (`child`، با مقادیر 1 یا 2) است. برای حل این مسأله دوباره باید یک بردار به `names_to` بدهیم اما این بار از مقدار خاص `"value."` استفاده می‌کنیم؛ این نام یک متغیر نیست، بلکه یک مقدار منحصر به فرد است که به `()pivot_longer` می‌گوید کار متفاوتی انجام دهد. این مقدار خاص، آرگومان معمول `values_to` را نادیده می‌گیرد تا اولین جزء از نام ستون چرخیده‌شده را به عنوان نام متغیر در خروجی استفاده کند.
```{r}
household |> 
  pivot_longer(
    cols = !family, 
    names_to = c(".value", "child"), 
    names_sep = "_", 
    values_drop_na = TRUE
  )
#> # A tibble: 9 × 4
#>   family child  dob        name 
#>    <int> <chr>  <date>     <chr>
#> 1      1 child1 1998-11-26 Susan
#> 2      1 child2 2000-01-29 Jose 
#> 3      2 child1 1996-06-22 Mark 
#> 4      3 child1 2002-07-11 Sam  
#> 5      3 child2 2004-04-05 Seth 
#> 6      4 child1 2004-10-10 Craig
#> # ℹ 3 more rows
```
…
### 4.5 داده پهن‌تر کردن

تاکنون برای حل دسته‌ی رایجی از مسائل که در آنها مقادیر در نام ستون‌ها قرار می‌گرفتند از `()pivot_longer` استفاده کرده‌ایم. در مرحله بعد، از `()pivot_wider` برای چرخش داده‌ها استفاده خواهیم کرد به طوری که مجموعه داده‌ها را با افزایش ستون‌ها و کاهش سطرها پهن‌تر می‌کند و این در زمانی که یک مشاهده در چندین سطر پخش شده است کمک‌کننده است. به نظر می‌رسد این مشکل کمتر در دنیای واقعی رخ می‌دهد، اما به نظر می‌رسد هنگام برخورد با داده‌های دولتی زیاد پیش می‌آید.

با بررسی داده‌های `cms_patient_experience` شروع می‌کنیم، مجموعه داده‌ای از مراکز پزشکی که داده‌هایی درباره تجربیات بیمار جمع‌آوری کرده است. 

```{r}
cms_patient_experience
#> # A tibble: 500 × 5
#>   org_pac_id org_nm                     measure_cd   measure_title   prf_rate
#>   <chr>      <chr>                      <chr>        <chr>              <dbl>
#> 1 0446157747 USC CARE MEDICAL GROUP INC CAHPS_GRP_1  CAHPS for MIPS…       63
#> 2 0446157747 USC CARE MEDICAL GROUP INC CAHPS_GRP_2  CAHPS for MIPS…       87
#> 3 0446157747 USC CARE MEDICAL GROUP INC CAHPS_GRP_3  CAHPS for MIPS…       86
#> 4 0446157747 USC CARE MEDICAL GROUP INC CAHPS_GRP_5  CAHPS for MIPS…       57
#> 5 0446157747 USC CARE MEDICAL GROUP INC CAHPS_GRP_8  CAHPS for MIPS…       85
#> 6 0446157747 USC CARE MEDICAL GROUP INC CAHPS_GRP_12 CAHPS for MIPS…       24
#> # ℹ 494 more rows
```
…
هیچ‌کدام از این ستون‌ها برای نام‌گذاری متغیرها مناسب نیستند: ‍‍`measure_cd` به معنای متغیر اشاره نمی‌کند و `measure_title` یک جمله طولانی است که شامل فاصله است. از `measure_cd` به عنوان منبع نام ستون‌های جدید استفاده خواهیم کرد، اما در تحلیل واقعی ممکن است که بخواهید از نام‌های متغیر خودتان استفاده کنید که هم کوتاه و هم معنادار باشند.

تابع `()pivot_wider` آرگومان‌های مخالف `()pivot_longer` دارد. به جای انتخاب نام ستون‌های جدید، باید ستون‌های موجودی که تعریف‌کننده مقادیر (`values_from`) و نام ستون (`names_from`) هستند را به تابع بدهیم.

```{r}
cms_patient_experience |> 
  pivot_wider(
    names_from = measure_cd,
    values_from = prf_rate
  )
#> # A tibble: 500 × 9
#>   org_pac_id org_nm                   measure_title   CAHPS_GRP_1 CAHPS_GRP_2
#>   <chr>      <chr>                    <chr>                 <dbl>       <dbl>
#> 1 0446157747 USC CARE MEDICAL GROUP … CAHPS for MIPS…          63          NA
#> 2 0446157747 USC CARE MEDICAL GROUP … CAHPS for MIPS…          NA          87
#> 3 0446157747 USC CARE MEDICAL GROUP … CAHPS for MIPS…          NA          NA
#> 4 0446157747 USC CARE MEDICAL GROUP … CAHPS for MIPS…          NA          NA
#> 5 0446157747 USC CARE MEDICAL GROUP … CAHPS for MIPS…          NA          NA
#> 6 0446157747 USC CARE MEDICAL GROUP … CAHPS for MIPS…          NA          NA
#> # ℹ 494 more rows
#> # ℹ 4 more variables: CAHPS_GRP_3 <dbl>, CAHPS_GRP_5 <dbl>, …
```

خروجی کاملاً درست به نظر نمی‌رسد؛ به نظر می‌رسد که هنوز برای هر سازمان چندین سطر داریم. دلیلش آن است که همچنان نیاز داریم تا مقداری به `()pivot_wider` بدهیم که کدام ستون یا ستون‌ها دارای مقادیری هستند که به طور منحصر به فردی هر سطر را مشخص می‌کنند. در این مورد این ستون‌ها متغیرهایی هستند که نامشان با `"org"` شروع می‌شود.
```{r}
cms_patient_experience |> 
  pivot_wider(
    id_cols = starts_with("org"),
    names_from = measure_cd,
    values_from = prf_rate
  )
#> # A tibble: 95 × 8
#>   org_pac_id org_nm           CAHPS_GRP_1 CAHPS_GRP_2 CAHPS_GRP_3 CAHPS_GRP_5
#>   <chr>      <chr>                  <dbl>       <dbl>       <dbl>       <dbl>
#> 1 0446157747 USC CARE MEDICA…          63          87          86          57
#> 2 0446162697 ASSOCIATION OF …          59          85          83          63
#> 3 0547164295 BEAVER MEDICAL …          49          NA          75          44
#> 4 0749333730 CAPE PHYSICIANS…          67          84          85          65
#> 5 0840104360 ALLIANCE PHYSIC…          66          87          87          64
#> 6 0840109864 REX HOSPITAL INC          73          87          84          67
#> # ℹ 89 more rows
#> # ℹ 2 more variables: CAHPS_GRP_8 <dbl>, CAHPS_GRP_12 <dbl>
```
…
