…
*مشاهده*<br>
مجموعه‌ای از اندازه‌گیری‌ها که در شرایط مشابه انجام می‌شوند (معمولاً تمام اندازه‌گیری‌های مربوط به یک مشاهده، به‌صورت هم‌زمان و بر روی یک شیء انجام می‌شوند). هر مشاهده شامل چندین مقدار است که هرکدام به یک متغیر متفاوت مرتبط هستند. گاهی به یک مشاهده، «نقطه‌ی داده» نیز می‌گوییم.
<br><br>

*داده‌های جدولی*<br>
مجموعه‌ای از مقادیر است که هر یک با یک متغیر و یک مشاهده مرتبط هستند. داده‌های جدولی «مرتب» محسوب می‌شوند اگر هر مقدار در «سلول» مخصوص به خود، هر متغیر در «ستون» مخصوص به خود و هر مشاهده در «سطر» مخصوص به خود قرار گیرد.
<br><br>

در این مبحث، «متغیر» به ویژگی‌هایی اشاره دارد که در همه‌ی پنگوئن‌ها وجود دارند و «مشاهده» به مجموعه‌ی تمام ویژگی‌های مربوط به یک پنگوئن خاص گفته می‌شود.

نام چارچوب داده را در کنسول بنویسید تا R پیش‌نمایشی از محتوای آن را نمایش دهد. توجه کنید که در بالای این پیش‌نمایش، واژه‌ی `tibble` نوشته شده است. در مجموعه‌ی tidyverse از نوع خاصی از چارچوب‌های داده به نام tibble استفاده می‌کنیم که به‌زودی با آن آشنا خواهید شد.

```{r}
penguins
#> # A tibble: 344 × 8
#> species island bill_length_mm bill_depth_mm flipper_length_mm
#> <fct> <fct> <dbl> <dbl> <int>
#> 1 Adelie Torgersen 39.1 18.7 181
#> 2 Adelie Torgersen 39.5 17.4 186
#> 3 Adelie Torgersen 40.3 18 195
#> 4 Adelie Torgersen NA NA NA
#> 5 Adelie Torgersen 36.7 19.3 193
#> 6 Adelie Torgersen 39.3 20.6 190
#> # … with 338 more rows, and 3 more variables: body_mass_g <int>, sex <fct>,
#> # year <int>
```
…
