…
## 4.7 خواندن داده‌ها از چندین فایل

گاهی اوقات داده‌های شما به جای اینکه در یک فایل واحد قرار گیرند، در چندین فایل تقسیم می‌شوند. برای مثال، ممکن است داده‌های فروش چندین ماه را داشته باشید و داده‌های هر ماه در یک فایل جداگانه قرار داشته باشند: `01-sales.csv` برای ژانویه، `02-sales.csv` برای فوریه و `03-sales.csv` برای مارس. با `()read_csv` می‌توانید این داده‌ها را به طور همزمان بخوانید و آنها را در یک چارچوب داده واحد روی هم قرار دهید.

```{r}
sales_files <- c("data/01-sales.csv", "data/02-sales.csv", "data/03-sales.csv")
read_csv(sales_files, id = "file")
#> # A tibble: 19 × 6
#>   file              month    year brand  item     n
#>   <chr>             <chr>   <dbl> <dbl> <dbl> <dbl>
#> 1 data/01-sales.csv January  2019     1  1234     3
#> 2 data/01-sales.csv January  2019     1  8721     9
#> 3 data/01-sales.csv January  2019     1  1822     2
#> 4 data/01-sales.csv January  2019     2  3333     1
#> 5 data/01-sales.csv January  2019     2  2156     9
#> 6 data/01-sales.csv January  2019     2  3987     6
#> # ℹ 13 more rows
```
…
