…
به پیام مغایرت‌هایی که هنگام بارگذاری tidyverse چاپ می‌شود، دقت کنید.
این پیام به شما می‌گوید که dplyr برخی توابع در زبان پایه R را بازنویسی می‌کند.
اگر بخواهید پس از بارگذاری dplyr از نسخه پایه این توابع استفاده کنید، باید از نام کامل آنها استفاده کنید: `()filter::stats` و `()lag::stats`.
تا کنون، این که بسته‌ها شامل چه توابعی هستند را به دلیل کم اهمیت بودنشان نادیده گرفتیم.
با این حال، شناخت آن بسته می‌تواند به یافتن توابع مرتبط کمک کند، پس وقتی دقیقاً نیاز داریم تا بدانیم که یک تابع از کدام بسته می‌آید از دستور یکسان همانند R استفاده خواهیم کرد: `()functionname::packagename`.

### 2.1.3 بسته nycflights13

برای کاوش توابع اصلی dplyr، از `nycflights13::flights` استفاده خواهیم کرد.
این مجموعه داده شامل همه 336,776 پروازهایی است که در سال 2013 از شهر نیویورک حرکت کردند.
داده‌ها از [اداره آمار حمل‌ونقل آمریکا](https://www.transtats.bts.gov/DL_SelectFields.aspx?gnoyr_VQ=FGJ&QO_fu146_anzr=b0-gvzr) می‌آید و در `?flights` مستند شده است.

```{r}
flights
#> # A tibble: 336,776 × 19
#>    year month   day dep_time sched_dep_time dep_delay arr_time sched_arr_time
#>   <int> <int> <int>    <int>          <int>     <dbl>    <int>          <int>
#> 1  2013     1     1      517            515         2      830            819
#> 2  2013     1     1      533            529         4      850            830
#> 3  2013     1     1      542            540         2      923            850
#> 4  2013     1     1      544            545        -1     1004           1022
#> 5  2013     1     1      554            600        -6      812            837
#> 6  2013     1     1      554            558        -4      740            728
#> # ℹ 336,770 more rows
#> # ℹ 11 more variables: arr_delay <dbl>, carrier <chr>, flight <int>, …
```
…
توابع dplyr در چهار گروه بر اساس آنچه که روی آن عمل می‌کنند سازماندهی شده‌اند: **سطرها**، **ستون‌ها**، **گروه‌ها**، یا **جداول**. در بخش‌های زیر، مهم‌ترین توابع برای سطرها، ستون‌ها و گروه‌ها را یاد خواهید گرفت. سپس، به توابع join که روی جداول عمل می‌کنند بازخواهیم گشت. بیایید شروع کنیم!

## 2.3 سطرها

مهم‌ترین توابعی که روی سطرهای یک مجموعه داده عمل می‌کنند تابع `()filter` است که سطرهای موجود را بدون تغییر ترتیب آنها تغییر می‌دهد، و `()arrange` که ترتیب سطرها را بدون تغییر سطرهای موجود تغییر می‌دهد. هر دو تابع فقط روی سطرها تأثیر می‌گذارند و ستون‌ها دست‌نخورده باقی می‌مانند. همچنین درباره تابع `()distinct` که سطرهایی با مقادیر منحصر به فرد پیدا می‌کند، بحث خواهیم کرد. برخلاف توابع `()arrange` و `()filter` می‌تواند به صورت اختیاری ستون‌ها را نیز تغییر دهد.

### 1.2.3 تابع `()filter`

تابع `()filter` به شما اجازه می‌دهد سطرها را بر اساس مقادیر ستون‌ها انتخاب کنید. آرگومان اول یک data frame است.آرگومان دوم و بعدی شرط‌هایی هستند که برای انتخاب کردن سطر باید درست باشند.برای مثال، می‌توانیم همه پروازهایی که بیش از 120 دقیقه (دو ساعت) دیر حرکت کردند را پیدا کنیم:

```{r}
flights |> 
  filter(dep_delay > 120)
#> # A tibble: 9,723 × 19
#>    year month   day dep_time sched_dep_time dep_delay arr_time sched_arr_time
#>   <int> <int> <int>    <int>          <int>     <dbl>    <int>          <int>
#> 1  2013     1     1      848           1835       853     1001           1950
#> 2  2013     1     1      957            733       144     1056            853
#> 3  2013     1     1     1114            900       134     1447           1222
#> 4  2013     1     1     1540           1338       122     2020           1825
#> 5  2013     1     1     1815           1325       290     2120           1542
#> 6  2013     1     1     1842           1422       260     1958           1535
#> # ℹ 9,717 more rows
#> # ℹ 11 more variables: arr_delay <dbl>, carrier <chr>, flight <int>, …
```
`=!`
علاوه بر `<` (بزرگ‌تر از)، می‌توانید از `=<` (بزرگ‌تر یا مساوی)، `>` (کوچک‌تر از)، `=>` (کوچک‌تر یا مساوی)، `==` (مساوی)، و `=!` (نامساوی) استفاده کنید. همچنین می‌توانید شرط‌هایی را با `&` یا `,` برای نشان دادن "و" (بررسی هر دو شرط) یا با `|` برای نشان دادن "یا" (بررسی هر کدام از شرایط) ترکیب کنید:

```{r}
# پروازهایی که در 1 ژانویه حرکت کردند
flights |> 
  filter(month == 1 & day == 1)
#> # A tibble: 842 × 19
#>    year month   day dep_time sched_dep_time dep_delay arr_time sched_arr_time
#>   <int> <int> <int>    <int>          <int>     <dbl>    <int>          <int>
#> 1  2013     1     1      517            515         2      830            819
#> 2  2013     1     1      533            529         4      850            830
#> 3  2013     1     1      542            540         2      923            850
#> 4  2013     1     1      544            545        -1     1004           1022
#> 5  2013     1     1      554            600        -6      812            837
#> 6  2013     1     1      554            558        -4      740            728
#> # ℹ 836 more rows
#> # ℹ 11 more variables: arr_delay <dbl>, carrier <chr>, flight <int>, …

# پروازهایی که در ژانویه یا فوریه حرکت کردند
flights |>
  filter(month == 1 | month == 2)
#> # A tibble: 51,955 × 19
#>    year month   day dep_time sched_dep_time dep_delay arr_time sched_arr_time
#>   <int> <int> <int>    <int>          <int>     <dbl>    <int>          <int>
#> 1  2013     1     1      517            515         2      830            819
#> 2  2013     1     1      533            529         4      850            830
#> 3  2013     1     1      542            540         2      923            850
#> 4  2013     1     1      544            545        -1     1004           1022
#> 5  2013     1     1      554            600        -6      812            837
#> 6  2013     1     1      554            558        -4      740            728
#> # ℹ 51,949 more rows
#> # ℹ 11 more variables: arr_delay <dbl>, carrier <chr>, flight <int>, …
```

میانبر مفیدی وجود دارد وقتی `|` و `==` را ترکیب می‌کنید: `%in%`. سطرهایی را انتخاب می‌کند که متغیر با یکی از مقادیر سمت راست برابر باشد:

```{r}
# راه کوتاه‌تر برای انتخاب پروازهایی که در ژانویه یا فوریه حرکت کردند
flights |> 
  filter(month %in% c(1, 2))
#> # A tibble: 51,955 × 19
#>    year month   day dep_time sched_dep_time dep_delay arr_time sched_arr_time
#>   <int> <int> <int>    <int>          <int>     <dbl>    <int>          <int>
#> 1  2013     1     1      517            515         2      830            819
#> 2  2013     1     1      533            529         4      850            830
#> 3  2013     1     1      542            540         2      923            850
#> 4  2013     1     1      544            545        -1     1004           1022
#> 5  2013     1     1      554            600        -6      812            837
#> 6  2013     1     1      554            558        -4      740            728
#> # ℹ 51,949 more rows
#> # ℹ 11 more variables: arr_delay <dbl>, carrier <chr>, flight <int>, …
```
…
```{r}
flights |> 
  filter(month == 1 | 2)
```
این دستور اجرا می‌شود، به این معنا که خطایی ایجاد نمی‌کند اما کاری را که می خواهید انجام نمی‌دهد چون `|` ابتدا شرط `month == 1` را بررسی می‌کند و سپس شرط `2` را بررسی می‌کند که شرط منطقی برای بررسی نیست.

### 3.2.3 تابع `()arrange`

تابع `()arrange` ترتیب سطرها را بر اساس مقدار ستون‌ها تغییر می‌دهد. یک data frame و مجموعه‌ای از نام ستون‌ها (یا عبارات پیچیده‌تر) برای مرتب‌سازی می‌گیرد. اگر بیش از یک نام ستون ارائه دهید، هر ستون اضافی برای شکستن تساوی در مقادیر ستون‌های قبلی استفاده خواهد شد. برای مثال، کد زیر بر اساس زمان حرکت که در چهار ستون پخش شده‌اند، مجموعه داده را مرتب می‌کند. ابتدا زودترین سال‌ها، سپس در هر سال، زودترین ماه‌ها و غیره را دریافت می‌کنیم.

```{r}
flights |> 
  arrange(year, month, day, dep_time)
#> # A tibble: 336,776 × 19
#>    year month   day dep_time sched_dep_time dep_delay arr_time sched_arr_time
#>   <int> <int> <int>    <int>          <int>     <dbl>    <int>          <int>
#> 1  2013     1     1      517            515         2      830            819
#> 2  2013     1     1      533            529         4      850            830
#> 3  2013     1     1      542            540         2      923            850
#> 4  2013     1     1      544            545        -1     1004           1022
#> 5  2013     1     1      554            600        -6      812            837
#> 6  2013     1     1      554            558        -4      740            728
#> # ℹ 336,770 more rows
#> # ℹ 11 more variables: arr_delay <dbl>, carrier <chr>, flight <int>, …
```

می‌توانید از `()desc` روی یک ستون درون `()arrange` استفاده کنید تا data frame را بر اساس آن ستون به ترتیب نزولی (بزرگ به کوچک) مرتب کنید. برای مثال، این کد پروازها را از بیشترین تا کمترین تأخیر مرتب می‌کند:

```{r}
flights |> 
  arrange(desc(dep_delay))
#> # A tibble: 336,776 × 19
#>    year month   day dep_time sched_dep_time dep_delay arr_time sched_arr_time
#>   <int> <int> <int>    <int>          <int>     <dbl>    <int>          <int>
#> 1  2013     1     9      641            900      1301     1242           1530
#> 2  2013     6    15     1432           1935      1137     1607           2120
#> 3  2013     1    10     1121           1635      1126     1239           1810
#> 4  2013     9    20     1139           1845      1014     1457           2210
#> 5  2013     7    22      845           1600      1005     1044           1815
#> 6  2013     4    10     1100           1900       960     1342           2211
#> # ℹ 336,770 more rows
#> # ℹ 11 more variables: arr_delay <dbl>, carrier <chr>, flight <int>, …
```

توجه کنید که تعداد سطرها تغییر نکرده است - ما فقط داده‌ها را مرتب می‌کنیم، آنها را فیلتر نمی‌کنیم.

### 4.2.3 تابع `()distinct`

تابع `()distinct` همه سطرهای منحصر به فرد در یک مجموعه داده را پیدا می‌کند، پس از نظر فنی، عمدتاً روی سطرها عمل می‌کند. با این حال، بیشتر اوقات، ترکیب متمایز برخی متغیرها را می‌خواهید، پس می‌توانید به صورت اختیاری نام ستون‌ها را نیز ارائه دهید:

```{r}
# حذف سطرهای تکراری، اگر وجود داشته باشند
flights |> 
  distinct()
#> # A tibble: 336,776 × 19
#>    year month   day dep_time sched_dep_time dep_delay arr_time sched_arr_time
#>   <int> <int> <int>    <int>          <int>     <dbl>    <int>          <int>
#> 1  2013     1     1      517            515         2      830            819
#> 2  2013     1     1      533            529         4      850            830
#> 3  2013     1     1      542            540         2      923            850
#> 4  2013     1     1      544            545        -1     1004           1022
#> 5  2013     1     1      554            600        -6      812            837
#> 6  2013     1     1      554            558        -4      740            728
#> # ℹ 336,770 more rows
#> # ℹ 11 more variables: arr_delay <dbl>, carrier <chr>, flight <int>, …

# پیدا کردن همه جفت‌های منحصر به فرد مبدأ و مقصد
flights |> 
  distinct(origin, dest)
#> # A tibble: 224 × 2
#>   origin dest 
#>   <chr>  <chr>
#> 1 EWR    IAH  
#> 2 LGA    IAH  
#> 3 JFK    MIA  
#> 4 JFK    BQN  
#> 5 LGA    ATL  
#> 6 EWR    ORD  
#> # ℹ 218 more rows
```
همچنین، اگر می‌خواهید هنگام فیلتر کردن برای سطرهای منحصر به فرد، ستون‌های دیگر را نگه دارید، می‌توانید از گزینه `keep_all = TRUE.` استفاده کنید.
 
```{r}
flights |> 
  distinct(origin, dest, .keep_all = TRUE)
#> # A tibble: 224 × 19
#>    year month   day dep_time sched_dep_time dep_delay arr_time sched_arr_time
#>   <int> <int> <int>    <int>          <int>     <dbl>    <int>          <int>
#> 1  2013     1     1      517            515         2      830            819
#> 2  2013     1     1      533            529         4      850            830
#> 3  2013     1     1      542            540         2      923            850
#> 4  2013     1     1      544            545        -1     1004           1022
#> 5  2013     1     1      554            600        -6      812            837
#> 6  2013     1     1      554            558        -4      740            728
#> # ℹ 218 more rows
#> # ℹ 11 more variables: arr_delay <dbl>, carrier <chr>, flight <int>, …
```

تصادفی نیست که همه این پروازهای متمایز در 1 ژانویه هستند: `()distinct` اولین رخداد یک سطر منحصر به فرد در مجموعه داده را پیدا می‌کند و بقیه را نادیده می‌گیرد. اگر می‌خواهید تعداد تکرارها را پیدا کنید، بهتر است `()distinct` را با `()count` جایگزین کنید. با آرگومان `sort = TRUE`، می‌توانید آنها را به ترتیب نزولی تعداد تکرارها مرتب کنید. در بخش ۱۳.۳ اطلاعات بیشتری در مورد شمارش یاد خواهید گرفت.

```{r}
flights |>
  count(origin, dest, sort = TRUE)
#> # A tibble: 224 × 3
#>   origin dest      n
#>   <chr>  <chr> <int>
#> 1 JFK    LAX   11262
#> 2 LGA    ATL   10263
#> 3 LGA    ORD    8857
#> 4 JFK    SFO    8204
#> 5 LGA    CLT    6168
#> 6 EWR    ORD    6100
#> # ℹ 218 more rows
```
…
## 3.3 ستون‌ها

چهار تابع مهم وجود دارد که بدون تغییر سطرها روی ستون‌ها تأثیر می‌گذارند: `()mutate` ستون‌های جدیدی که از ستون‌های موجود مشتق شده‌اند ایجاد می‌کند، `()select` محجموعه داده‌ای جدید با ستون‌هایی که موجود هستند ایجاد می‌کند، `()rename` نام ستون‌ها را تغییر می‌دهد، و `()relocate` موقعیت ستون‌ها را تغییر می‌دهد.

### 1.3.3 تابع `()mutate`
وظیفه `mutate()` اضافه کردن ستون‌های جدیدی است که از ستون‌های موجود محاسبه می‌شوند. در فصل‌های تبدیل، مجموعه بزرگی از توابع که می‌توانید برای دستکاری انواع مختلف متغیرها استفاده کنید یاد خواهید گرفت.
فعلاً، با جبر پایه که به ما اجازه محاسبه `gain`، میزان زمانی که پرواز تأخیردار در پرواز خود در مسیر هوایی جبران کرد، و `speed` سرعت پرواز بر حسب مایل در ساعت می‌دهد، بسنده می‌کنیم:

```{r}
flights |> 
  mutate(
    gain = dep_delay - arr_delay,
    speed = distance / air_time * 60
  )
#> # A tibble: 336,776 × 21
#>    year month   day dep_time sched_dep_time dep_delay arr_time sched_arr_time
#>   <int> <int> <int>    <int>          <int>     <dbl>    <int>          <int>
#> 1  2013     1     1      517            515         2      830            819
#> 2  2013     1     1      533            529         4      850            830
#> 3  2013     1     1      542            540         2      923            850
#> 4  2013     1     1      544            545        -1     1004           1022
#> 5  2013     1     1      554            600        -6      812            837
#> 6  2013     1     1      554            558        -4      740            728
#> # ℹ 336,770 more rows
#> # ℹ 13 more variables: arr_delay <dbl>, carrier <chr>, flight <int>, …
```

به طور پیش‌فرض، `()mutate` ستون‌های جدید را در سمت راست مجموعه داده‌تان اضافه می‌کند به طوری که مشاهده آنچه در مجموعه داده اتفاق افتاده است را دشوار می‌کند. می‌توانیم از آرگومان `before.` استفاده کنیم تا متغیرها را به سمت چپ اضافه کنیم:

```{r}
flights |> 
  mutate(
    gain = dep_delay - arr_delay,
    speed = distance / air_time * 60,
    .before = 1
  )
#> # A tibble: 336,776 × 21
#>    gain speed  year month   day dep_time sched_dep_time dep_delay arr_time
#>   <dbl> <dbl> <int> <int> <int>    <int>          <int>     <dbl>    <int>
#> 1    -9  370.  2013     1     1      517            515         2      830
#> 2   -16  374.  2013     1     1      533            529         4      850
#> 3   -31  408.  2013     1     1      542            540         2      923
#> 4    17  517.  2013     1     1      544            545        -1     1004
#> 5    19  394.  2013     1     1      554            600        -6      812
#> 6   -16  288.  2013     1     1      554            558        -4      740
#> # ℹ 336,770 more rows
#> # ℹ 12 more variables: sched_arr_time <int>, arr_delay <dbl>, …
```
…
تعدادی تابع کمکی وجود دارد که می‌توانید درون `()select` استفاده کنید:
- دستور `starts_with("abc")`: با نام‌هایی که با "abc" شروع می‌شوند، مطابقت دارد.
- دستور `ends_with("xyz")`: با نام‌هایی که با "xyz" تمام می‌شوند، مطابقت دارد.
- دستور `contains("ijk")`: با نام‌هایی که شامل "ijk" هستند، مطابقت دارد.
- دستور `num_range("x", 1:3)`: با  `x2`، `x1` و `x3` مطابقت دارد.

برای جزئیات بیشتر دستور `select?` را اجرا کنید. وقتی عبارات باقاعده (موضوع فصل ۱۵) را یاد بگیرید، می‌توانید از `()matches` برای انتخاب متغیرهایی که با یک الگو مطابقت دارند نیز استفاده کنید.

می‌توانید هنگام `select()` کردن متغیرها آنها را با استفاده از `=` تغییر نام دهید. نام جدید در سمت چپ `=` و متغیر قدیمی در سمت راست آن ظاهر می‌شود:

```{r}
flights |> 
  select(tail_num = tailnum)
#> # A tibble: 336,776 × 1
#>   tail_num
#>   <chr>   
#> 1 N14228  
#> 2 N24211  
#> 3 N619AA  
#> 4 N804JB  
#> 5 N668DN  
#> 6 N39463  
#> # ℹ 336,770 more rows
```

### 3.3.3 تابع `()rename`

اگر می‌خواهید همه متغیرهای موجود را نگه دارید و فقط چندتایی را تغییر نام دهید، می‌توانید به جای `()select` از `()rename` استفاده کنید:
```{r}
flights |> 
  rename(tail_num = tailnum)
#> # A tibble: 336,776 × 19
#>    year month   day dep_time sched_dep_time dep_delay arr_time sched_arr_time
#>   <int> <int> <int>    <int>          <int>     <dbl>    <int>          <int>
#> 1  2013     1     1      517            515         2      830            819
#> 2  2013     1     1      533            529         4      850            830
#> 3  2013     1     1      542            540         2      923            850
#> 4  2013     1     1      544            545        -1     1004           1022
#> 5  2013     1     1      554            600        -6      812            837
#> 6  2013     1     1      554            558        -4      740            728
#> # ℹ 336,770 more rows
#> # ℹ 11 more variables: arr_delay <dbl>, carrier <chr>, flight <int>, …
```
اگر تعداد زیادی ستون با نام‌های نامتناسب دارید و اصلاح دستی همه آنها دشوار است، از `()janitor::clean_names` استفاده کنید که پاکسازی خودکار مفیدی را ارائه می‌دهد.

### 4.3.3 تابع `()relocate`

از `()relocate` برای جابجایی متغیرها استفاده کنید. ممکن است بخواهید متغیرهای مرتبط را کنار هم جمع کنید یا متغیرهای مهم را به ابتدا بیاورید. به طور پیش‌فرض `()relocate` متغیرها را به ابتدای مجموعه داده می‌آورد:
```{r}
flights |> 
  relocate(time_hour, air_time)
#> # A tibble: 336,776 × 19
#>   time_hour           air_time  year month   day dep_time sched_dep_time
#>   <dttm>                 <dbl> <int> <int> <int>    <int>          <int>
#> 1 2013-01-01 05:00:00      227  2013     1     1      517            515
#> 2 2013-01-01 05:00:00      227  2013     1     1      533            529
#> 3 2013-01-01 05:00:00      160  2013     1     1      542            540
#> 4 2013-01-01 05:00:00      183  2013     1     1      544            545
#> 5 2013-01-01 06:00:00      116  2013     1     1      554            600
#> 6 2013-01-01 05:00:00      150  2013     1     1      554            558
#> # ℹ 336,770 more rows
#> # ℹ 12 more variables: dep_delay <dbl>, arr_time <int>, …
```
…
## 4.3 عملیات pipe

نمونه‌های ساده pipe را در بالا نشان داده‌ایم، اما قدرت واقعی آن زمانی ظاهر می‌شود که شروع به ترکیب چندین تابع می‌کنید.برای مثال، تصور کنید می‌خواهید سریع‌ترین پروازها به فرودگاه IAH هیوستون را پیدا کنید: باید `filter()`، `mutate()`، `select()`، و `arrange()` را ترکیب کنید:

```{r}
flights |> 
  filter(dest == "IAH") |> 
  mutate(speed = distance / air_time * 60) |> 
  select(year:day, dep_time, carrier, flight, speed) |> 
  arrange(desc(speed))
#> # A tibble: 7,198 × 7
#>    year month   day dep_time carrier flight speed
#>   <int> <int> <int>    <int> <chr>    <int> <dbl>
#> 1  2013     7     9      707 UA         226  522.
#> 2  2013     8    27     1850 UA        1128  521.
#> 3  2013     8    28      902 UA        1711  519.
#> 4  2013     8    28     2122 UA        1022  519.
#> 5  2013     6    11     1628 UA        1178  515.
#> 6  2013     8    27     1017 UA         333  515.
#> # ℹ 7,192 more rows
```
…
