…
اگر نیاز دارید که مستقیماً به مجموعه سطوح معتبر دسترسی داشته باشید، می‌توانید این کار را با `levels()` انجام دهید:

```{r}
levels(f2)
#> [1] "Dec" "Apr" "Jan" "Mar"
```

## ۳.۱۶ نظرسنجی اجتماعی عمومی

برای بقیه این فصل، از `forcats::gss_cat` تمرکز خواهیم کرد. این نمونه‌ای از داده از نظرسنجی اجتماعی عمومی است، یک نظرسنجی بلندمدت در ایالات متحده که توسط سازمان مستقل تحقیقاتی NORC در دانشگاه شیکاگو انجام می‌شود. نظرسنجی هزاران سوال دارد، بنابراین در `gss_cat`، ما تعداد کمی را انتخاب کرده‌ایم که برخی از چالش‌های رایج را نشان می‌دهند که هنگام کار با فاکتورها با آن‌ها مواجه خواهید شد.

```{r}
gss_cat
#> # A tibble: 21,483 × 9
#>    year marital         age race  rincome        partyid      relig denom tvhours
#>   <int> <fct>         <int> <fct> <fct>          <fct>        <fct> <fct>   <int>
#> 1  2000 Never married    26 White $8000 to 9999  Ind,near re… Prot… Sout…      12
#> 2  2000 Divorced         48 White $8000 to 9999  Not str rep… Prot… Bapt…      NA
#> 3  2000 Widowed          67 White Not applicable Independent  Prot… No d…       2
#> 4  2000 Never married    39 White Not applicable Ind,near re… Orth… Not …       4
#> 5  2000 Divorced         25 White Not applicable Not str dem… None  Not …       1
#> 6  2000 Married          25 White $20000 - 24999 Strong demo… Prot… Sout…      NA
#> # ℹ 21,477 more rows
```
…
### ۱.۴.۱۶ تمرین‌ها

1. چندین نکته جالب در مورد متوسط ساعات تماشای تلویزیون در طول روز در `tvhours` وجود دارد. آیا می‌توانید آن‌ها را بهبود بخشید؟

2. برای هر فاکتور در `gss_cat`، سطوح را شناسایی کنید و آیا ترتیب سطوح دلخواه یا اصولی است؟

3. چرا انتقال "Not applicable" به جلوی سطوح آن نمودار را منتقل کرد؟

## ۵.۱۶ تغییر سطوح فاکتور

قدرتمندتر از تغییر ترتیب سطوح، تغییر مقادیر آن‌هاست. این به شما اجازه می‌دهد سطوح را برای انتشار روشن کنید و سطوح را برای نمایش سطح بالا جمع کنید. ابزار عمومی و قدرتمندترین `fct_recode()` است. این به شما اجازه می‌دهد هر سطح را به‌صورت دستی تغییر دهید یا دوباره نام‌گذاری کنید. به عنوان مثال، `gss_cat$partyid` را در نظر بگیرید:

```{r}
gss_cat |> count(partyid)
#> # A tibble: 10 × 2
#>   partyid                n
#>   <fct>              <int>
#> 1 No answer            154
#> 2 Don't know             1
#> 3 Other party          393
#> 4 Strong republican   2314
#> 5 Not str republican  3032
#> 6 Ind,near rep        1791
#> # ℹ 4 more rows
```
…
```{r}
gss_cat |>
  mutate(
    partyid = fct_recode(partyid,
      "Republican, strong"    = "Strong republican",
      "Republican, weak"      = "Not str republican",
      "Independent, near rep" = "Ind,near rep",
      "Independent, near dem" = "Ind,near dem",
      "Democrat, weak"        = "Not str democrat",
      "Democrat, strong"      = "Strong democrat"
    )
  ) |>
  count(partyid)
#> # A tibble: 10 × 2
#>   partyid                   n
#>   <fct>                 <int>
#> 1 No answer               154
#> 2 Don't know                1
#> 3 Other party             393
#> 4 Republican, strong     2314
#> 5 Republican, weak       3032
#> 6 Independent, near rep  1791
#> # ℹ 4 more rows
```
…
  mutate(
    partyid = fct_recode(partyid,
      "Republican, strong"    = "Strong republican",
      "Republican, weak"      = "Not str republican",
      "Independent, near rep" = "Ind,near rep",
      "Independent, near dem" = "Ind,near dem",
      "Democrat, weak"        = "Not str democrat",
      "Democrat, strong"      = "Strong democrat",
      "Other"                 = "No answer",
      "Other"                 = "Don't know",
      "Other"                 = "Other party"
    )
  ) |>
  count(partyid)
#> # A tibble: 7 × 2
#>   partyid                   n
#>   <fct>                 <int>
#> 1 Other                   548
#> 2 Republican, strong     2314
#> 3 Republican, weak       3032
#> 4 Independent, near rep  1791
#> 5 Independent, near dem  2499
#> 6 Democrat, weak         3690
#> # ℹ 1 more row
```
…
در این مورد، این اصلاً مفید نیست! شما باید از `fct_lump_n()` برای تعیین اینکه می‌خواهید چند گروه (به غیر از Other) را حفظ کنید استفاده کنید:

```{r}
gss_cat |>
  mutate(relig = fct_lump_n(relig, n = 10)) |>
  count(relig, sort = TRUE)
#> # A tibble: 11 × 2
#>   relig                       n
#>   <fct>                   <int>
#> 1 Protestant              10846
#> 2 Catholic                 5124
#> 3 None                     3523
#> 4 Christian                 689
#> 5 Other                     458
#> 6 Jewish                    388
#> # ℹ 5 more rows
```
…
