…
به طور پیش‌فرض، بلندتر کردن داده‌ها مقادیر گمشده صریح را حفظ می‌کند، اما اگر آن‌ها مقادیر گمشده ساختاری هستند که فقط به این دلیل وجود دارند که داده‌ها مرتب نیستند، می‌توانید آن‌ها را حذف کنید (ضمنی کنید) با تنظیم `values_drop_na = TRUE`. مثال‌ها را در بخش ۵.۲ برای جزئیات بیشتر ببینید.

### ۲.۳.۱۸ تکمیل

`tidyr::complete()` به شما اجازه می‌دهد با ارائه مجموعه‌ای از متغیرها که ترکیب ردیف‌هایی را که باید وجود داشته باشند تعریف می‌کنند، مقادیر گمشده صریح تولید کنید. به عنوان مثال، ما می‌دانیم که همه ترکیبات `year` و `qtr` باید در داده `stocks` وجود داشته باشند:

```{r}
stocks |> 
  complete(year, qtr)
#> # A tibble: 8 × 3
#>    year   qtr price
#>   <dbl> <dbl> <dbl>
#> 1  2020     1  1.88
#> 2  2020     2  0.59
#> 3  2020     3  0.35
#> 4  2020     4 NA   
#> 5  2021     1 NA   
#> 6  2021     2  0.92
#> # ℹ 2 more rows
```

معمولاً، شما `complete()` را با نام‌های متغیرهای موجود فراخوانی می‌کنید و ترکیبات گمشده را پر می‌کنید. با این حال، گاهی اوقات خود متغیرهای فردی ناقص هستند، بنابراین می‌توانید به جای آن داده‌های خود را ارائه دهید. به عنوان مثال، ممکن است بدانید که مجموعه داده `stocks` قرار است از 2019 تا 2021 اجرا شود، بنابراین می‌توانید آن مقادیر را به صراحت برای `year` ارائه دهید:

```{r}
stocks |> 
  complete(year = 2019:2021, qtr)
#> # A tibble: 12 × 3
#>    year   qtr price
#>   <dbl> <dbl> <dbl>
#> 1  2019     1 NA   
#> 2  2019     2 NA   
#> 3  2019     3 NA   
#> 4  2019     4 NA   
#> 5  2020     1  1.88
#> 6  2020     2  0.59
#> # ℹ 6 more rows
```
…
flights |> 
  distinct(tailnum) |> 
  anti_join(planes)
#> Joining with `by = join_by(tailnum)`
#> # A tibble: 722 × 1
#>   tailnum
#>   <chr>  
#> 1 N3ALAA 
#> 2 N3DUAA 
#> 3 N542MQ 
#> 4 N730MQ 
#> 5 N9EAMQ 
#> 6 N532UA 
#> # ℹ 716 more rows
```
…
