…
```{r}
x <- c("$1,234", "USD 3,513", "59%")
parse_number(x)
#> [1] 1234 3513   59
```

## ۳.۱۳ شمارش‌ها

شگفت‌آور است که چقدر علم داده می‌توانید فقط با شمارش‌ها و کمی حساب ساده انجام دهید، بنابراین dplyr تلاش می‌کند شمارش را تا حد امکان با `count()` آسان کند. این تابع برای اکتشاف سریع و بررسی‌های حین تحلیل عالی است:

```{r}
flights |> 
  count(dest)
#> # A tibble: 105 × 2
#>   dest      n
#>   <chr> <int>
#> 1 ABQ     254
#> 2 ACK     265
#> 3 ALB     439
#> 4 ANC       8
#> 5 ATL   17215
#> 6 AUS    2439
#> # ℹ 99 more rows
```

(علی‌رغم توصیه در فصل ۴، ما معمولاً `count()` را در یک خط قرار می‌دهیم زیرا معمولاً در کنسول برای بررسی سریع اینکه آیا یک محاسبه همان‌طور که انتظار می‌رود کار می‌کند، استفاده می‌شود.)

اگر می‌خواهید رایج‌ترین مقادیر را ببینید، `sort = TRUE` اضافه کنید:

```{r}
flights |> 
  count(dest, sort = TRUE)
#> # A tibble: 105 × 2
#>   dest      n
#>   <chr> <int>
#> 1 ORD   17283
#> 2 ATL   17215
#> 3 LAX   16174
#> 4 BOS   15508
#> 5 MCO   14082
#> 6 CLT   14064
#> # ℹ 99 more rows
```

و به یاد داشته باشید که اگر می‌خواهید تمام مقادیر را ببینید، می‌توانید از `|> View()` یا `|> print(n = Inf)` استفاده کنید.

می‌توانید همین محاسبه را "به صورت دستی" با `group_by()`، `summarize()` و `n()` انجام دهید. این کار مفید است زیرا به شما اجازه می‌دهد در همان زمان خلاصه‌های دیگری را نیز محاسبه کنید:

```{r}
flights |> 
  group_by(dest) |> 
  summarize(
    n = n(),
    delay = mean(arr_delay, na.rm = TRUE)
  )
#> # A tibble: 105 × 3
#>   dest      n delay
#>   <chr> <int> <dbl>
#> 1 ABQ     254  4.38
#> 2 ACK     265  4.85
#> 3 ALB     439 14.4 
#> 4 ANC       8 -2.5 
#> 5 ATL   17215 11.3 
#> 6 AUS    2439  6.02
#> # ℹ 99 more rows
```
…
چند نسخه از `n()` و `count()` وجود دارند که ممکن است مفید بیابید:

- `n_distinct(x)` تعداد مقادیر متمایز (منحصر به فرد) یک یا چند متغیر را می‌شمارد. به عنوان مثال، می‌توانیم بفهمیم کدام مقاصد توسط بیشترین شرکت‌های هواپیمایی سرویس داده می‌شوند:

```{r}
flights |> 
  group_by(dest) |> 
  summarize(carriers = n_distinct(carrier)) |> 
  arrange(desc(carriers))
#> # A tibble: 105 × 2
#>   dest  carriers
#>   <chr>    <int>
#> 1 ATL          7
#> 2 BOS          7
#> 3 CLT          7
#> 4 ORD          7
#> 5 TPA          7
#> 6 AUS          6
#> # ℹ 99 more rows
```

- شمارش وزنی یک جمع است. به عنوان مثال می‌توانید تعداد مایل‌هایی که هر هواپیما پرواز کرده را "بشمارید":

```{r}
flights |> 
  group_by(tailnum) |> 
  summarize(miles = sum(distance))
#> # A tibble: 4,044 × 2
#>   tailnum  miles
#>   <chr>    <dbl>
#> 1 D942DN    3418
#> 2 N0EGMQ  250866
#> 3 N10156  115966
#> 4 N102UW   25722
#> 5 N103US   24619
#> 6 N104UW   25157
#> # ℹ 4,038 more rows
```

شمارش‌های وزنی یک مسئله رایج هستند بنابراین `count()` یک آرگومان `wt` دارد که همان کار را انجام می‌دهد:

```{r}
flights |> 
  count(tailnum, wt = distance)
```

- می‌توانید مقادیر گمشده را با ترکیب `sum()` و `is.na()` بشمارید. در مجموعه داده پروازها، این نشان می‌دهد که چند پرواز لغو شده‌اند:

```{r}
flights |> 
  group_by(dest) |> 
  summarize(n_cancelled = sum(is.na(dep_time)))
#> # A tibble: 105 × 2
#>   dest  n_cancelled
#>   <chr>       <int>
#> 1 ABQ             0
#> 2 ACK             0
#> 3 ALB            20
#> 4 ANC             0
#> 5 ATL           317
#> 6 AUS            21
#> # ℹ 99 more rows
```
…
حساب مدولار مفید است زیرا به شما اجازه می‌دهد اعداد صحیح را به قطعات تقسیم کنید. به عنوان مثال، در مجموعه داده پروازها، می‌توانید `sched_dep_time` را به `hour` و `minute` با حساب مدولار محاسبه کنید:

```{r}
flights |> 
  mutate(
    hour = sched_dep_time %/% 100,
    minute = sched_dep_time %% 100,
    .keep = "used"
  )
#> # A tibble: 336,776 × 3
#>   sched_dep_time  hour minute
#>            <int> <dbl>  <dbl>
#> 1            515     5     15
#> 2            529     5     29
#> 3            540     5     40
#> 4            545     5     45
#> 5            600     6      0
#> 6            558     5     58
#> # ℹ 336,770 more rows
```
…
### ۲.۶.۱۳ حداقل، حداکثر و چارک‌ها

چه چیزی درباره توزیع می‌توانید بگویید؟ `min()` و `max()` کوچک‌ترین و بزرگ‌ترین مقادیر را می‌دهند. `quantile(x, 0.25)` مقداری را پیدا می‌کند که ۲۵٪ از `x` کمتر از آن است، `quantile(x, 0.5)` مقداری را پیدا می‌کند که ۵۰٪ کمتر از آن است (همان میانه)، و `quantile(x, 0.95)` مقداری را پیدا می‌کند که ۹۵٪ کمتر از آن است.

```{r}
flights |> 
  group_by(year, month, day) |> 
  summarize(
    max = max(dep_delay, na.rm = TRUE),
    q95 = quantile(dep_delay, 0.95, na.rm = TRUE),
    .groups = "drop"
  )
#> # A tibble: 365 × 5
#>    year month   day   max   q95
#>   <int> <int> <int> <dbl> <dbl>
#> 1  2013     1     1   853  70.1
#> 2  2013     1     2   379  85  
#> 3  2013     1     3   291  68  
#> 4  2013     1     4   288  60  
#> 5  2013     1     5   327  41  
#> 6  2013     1     6   202  51  
#> # ℹ 359 more rows
```
…
### ۵.۶.۱۳ موقعیت‌ها

`first(x)`، `last(x)` و `nth(x, n)` به شما اجازه می‌دهند به موقعیت‌های خاص در یک بردار دسترسی پیدا کنید:

```{r}
flights |> 
  group_by(year, month, day) |> 
  summarize(
    first_dep = first(dep_time, na_rm = TRUE), 
    fifth_dep = nth(dep_time, 5, na_rm = TRUE),
    last_dep = last(dep_time, na_rm = TRUE),
    .groups = "drop"
  )
#> # A tibble: 365 × 6
#>    year month   day first_dep fifth_dep last_dep
#>   <int> <int> <int>     <int>     <int>    <int>
#> 1  2013     1     1       517       554     2356
#> 2  2013     1     2        42       535     2354
#> 3  2013     1     3        32       520     2349
#> 4  2013     1     4        25       531     2358
#> 5  2013     1     5        14       534     2357
#> 6  2013     1     6        16       555     2355
#> # ℹ 359 more rows
```
…
