…
ابتدا HTML را می‌خوانیم:

```{r}
url <- "https://web.archive.org/web/20220201012049/https://www.imdb.com/chart/top/"
html <- read_html(url)
```

توجه داشته باشید که ما در اینجا از یک نسخه آرشیو شده از صفحه استفاده می‌کنیم زیرا صفحه اصلی ممکن است تغییر کند. با استفاده از ابزارهای مرورگر، می‌توانیم ببینیم که جدول در داخل یک `<table>` با `class="chart"` قرار دارد، پس می‌توانیم با این CSS selector آن را استخراج کنیم:

```{r}
table <- html |> 
  html_element(".chart") |> 
  html_table()
table
#> # A tibble: 250 × 5
#>    `Rank & Title`                            `IMDb Rating` `Your Rating`
#>    <chr>                                               <dbl> <chr>        
#>  1 "\n      1.\n      The Shawshank Redempt…              9.2 "12345678910…
#>  2 "\n      2.\n      The Godfather\n      …              9.1 "12345678910…
#>  3 "\n      3.\n      The Godfather: Part I…              9   "12345678910…
#>  4 "\n      4.\n      The Dark Knight\n    …              9   "12345678910…
#>  5 "\n      5.\n      12 Angry Men\n        …              8.9 "12345678910…
#>  6 "\n      6.\n      Schindler's List\n    …              8.9 "12345678910…
#>  # ℹ 244 more rows
```
…
    rating = `IMDb Rating`
  ) |> 
  mutate(
    rank_title_year = str_replace_all(rank_title_year, "\n +", " ")
  ) |> 
  separate_wider_regex(
    rank_title_year,
    patterns = c(
      rank = "\\d+", "\\. ",
      title = ".+", " +\\(",
      year = "\\d+", "\\)"
    )
  )
ratings
#> # A tibble: 250 × 4
#>   rank  title                      year  rating
#>   <chr> <chr>                      <chr>  <dbl>
#> 1 1     The Shawshank Redemption   1994     9.2
#> 2 2     The Godfather              1972     9.1
#> 3 3     The Godfather: Part II     1974     9  
#> 4 4     The Dark Knight            2008     9  
#> 5 5     12 Angry Men               1957     8.9
#> 6 6     Schindler's List           1993     8.9
#> # ℹ 244 more rows
```
…
  mutate(
    rating_n = html |> html_elements("td strong") |> html_attr("title")
  ) |> 
  separate_wider_regex(
    rating_n,
    patterns = c(
      "[0-9.]+ based on ",
      number = "[0-9,]+",
      " user ratings"
    )
  ) |> 
  mutate(
    number = parse_number(number)
  )
#> # A tibble: 250 × 5
#>   rank  title                    year  rating  number
#>   <chr> <chr>                    <chr>  <dbl>   <dbl>
#> 1 1     The Shawshank Redemption 1994     9.2 2536415
#> 2 2     The Godfather            1972     9.1 1745675
#> 3 3     The Godfather: Part II   1974     9   1211032
#> 4 4     The Dark Knight          2008     9   2486931
#> 5 5     12 Angry Men             1957     8.9  749563
#> 6 6     Schindler's List         1993     8.9 1295705
#> # ℹ 244 more rows
```
…
