…
هیچ‌گاه نباید از دست دادن اطلاعات را نادیده بگیرید یا داده‌ها را به سادگی تغییر دهید و آن را در جای خود قرار دهید. اگر این داده‌ها به اندازه کافی مهم هستند که در اکسل جمع‌آوری شوند و سپس در R تجزیه و تحلیل شوند، احتمالاً به اندازه کافی مهم هستند که روند پاکسازی داده‌ها را مستند کنید. شما باید یک اسکریپت پاکسازی داده ایجاد کنید که مشکلات داده‌های خام را برطرف کند و همیشه می‌توانید داده‌های خام خود را نگه دارید تا در صورت کشف یک مشکل در فرآیند پاکسازی داده‌ها، بتوانید به آن‌ها بازگردید.

### ۴.۲.۲۰ خواندن کاربرگ‌ها

یک پارامتر مهم دیگر که می‌توانید در `read_excel()` استفاده کنید `sheet` است که به شما امکان می‌دهد کدام کاربرگ را می‌خواهید بخوانید مشخص کنید. پیش‌فرض این است که اولین کاربرگ خوانده می‌شود.

```{r}
read_excel("data/penguins.xlsx", sheet = "Torgersen Island")
#> # A tibble: 52 × 8
#>   species island    bill_length_mm bill_depth_mm flipper_length_mm body_mass_g
#>   <chr>   <chr>              <dbl>         <dbl>             <dbl>       <dbl>
#> 1 Adelie  Torgersen           39.1          18.7               181        3750
#> 2 Adelie  Torgersen           39.5          17.4               186        3800
#> 3 Adelie  Torgersen           40.3          18                 195        3250
#> 4 Adelie  Torgersen           NA            NA                  NA          NA
#> 5 Adelie  Torgersen           36.7          19.3               193        3450
#> 6 Adelie  Torgersen           39.3          20.6               190        3650
#> # ℹ 46 more rows
#> # ℹ 2 more variables: sex <chr>, year <dbl>
```

برخی نفرات دوست دارند با صفحات گسترده کار کنند که شامل اطلاعات فراداده در بالای صفحه است - برای مثال شامل عنوان، توضیحات یا تاریخ‌ها. اگر می‌خواهید این اطلاعات را در R بخوانید، می‌توانید از `excel_sheets()` برای بدست آوردن اطلاعات درباره تمام کاربرگ‌های یک فایل اکسل استفاده کنید، و سپس از `read_excel()` برای خواندن کاربرگ‌هایی که علاقه‌مند هستید استفاده کنید.

```{r}
excel_sheets("data/penguins.xlsx")
#> [1] "Torgersen Island" "Biscoe Island"    "Dream Island"
```

هنگامی که کار با صفحات گسترده می‌کنید، اطلاعاتی که می‌خواهید بخوانید ممکن است در کاربرگ نباشد، بلکه در محدوده سلول‌های کاربرگ باشد. یک رویکرد کلاسیک برای ذخیره داده‌های جدولی در یک صفحه گسترده به طوری که از قابلیت‌های قالب‌بندی سلول استفاده کند، قرار دادن این جدول در یک محدوده است که شامل سایر سلول‌های خالی پیرامون آن است. شکل ۲۰.۲ نشان می‌دهد این چه شکلی به نظر می‌رسد.

در این مورد، شما می‌توانید آرگومان `range` را به `read_excel()` بدهید تا مشخص کنید کدام سلول‌ها را می‌خواهید بخوانید.

```{r}
read_excel("data/deaths.xlsx", range = "A5:F15")
#> # A tibble: 10 × 6
#>   Name           Profession   Age `Has kids` `Date of birth`     `Date of death`
#>   <chr>          <chr>      <dbl> <lgl>      <dttm>              <dttm>         
#> 1 David Bowie    musician      69 TRUE       1947-01-08 00:00:00 2016-01-10 00:…
#> 2 Carrie Fisher  actor         60 TRUE       1956-10-21 00:00:00 2016-12-27 00:…
#> 3 Chuck Berry    musician      90 TRUE       1926-10-18 00:00:00 2017-03-18 00:…
#> 4 Bill Paxton    actor         61 TRUE       1955-05-17 00:00:00 2017-02-25 00:…
#> 5 Prince         musician      57 TRUE       1958-06-07 00:00:00 2016-04-21 00:…
#> 6 Alan Rickman   actor         69 FALSE      1946-02-21 00:00:00 2016-01-14 00:…
#> # ℹ 4 more rows
```
…
توجه کنید که انواع ستون را کمی متفاوت در اینجا تعریف کردیم، با استفاده از کدهای کوتاه. به عنوان مثال، `"dcccc"` مخفف "double, character, character, character, character" است.

همچنین امکان خواندن کاربرگ‌های جداگانه از Google Sheets نیز وجود دارد. بیایید کاربرگ "Torgersen Island" را از Google Sheet penguins بخوانیم:

```{r}
penguins_sheet_id <- "1aFu8lnD_g0yjF5O-K6SFgSEWiHPpgvFCF0NY9D6LXnY"
read_sheet(penguins_sheet_id, sheet = "Torgersen Island")
#> ✔ Reading from penguins.
#> ✔ Range ''Torgersen Island''.
#> # A tibble: 52 × 8
#>   species island    bill_length_mm bill_depth_mm flipper_length_mm
#>   <chr>   <chr>     <list>         <list>        <list>           
#> 1 Adelie  Torgersen <dbl [1]>      <dbl [1]>     <dbl [1]>        
#> 2 Adelie  Torgersen <dbl [1]>      <dbl [1]>     <dbl [1]>        
#> 3 Adelie  Torgersen <dbl [1]>      <dbl [1]>     <dbl [1]>        
#> 4 Adelie  Torgersen <chr [1]>      <chr [1]>     <chr [1]>        
#> 5 Adelie  Torgersen <dbl [1]>      <dbl [1]>     <dbl [1]>        
#> 6 Adelie  Torgersen <dbl [1]>      <dbl [1]>     <dbl [1]>        
#> # ℹ 46 more rows
#> # ℹ 3 more variables: body_mass_g <list>, sex <chr>, year <dbl>
```
…
```{r}
sheet_names(penguins_sheet_id)
#> [1] "Torgersen Island" "Biscoe Island"    "Dream Island"
```

در نهایت، درست مانند `read_excel()`، می‌توانیم بخشی از یک Google Sheet را با تعریف `range` در `read_sheet()` بخوانیم. توجه کنید که ما همچنین از تابع `gs4_example()` در زیر برای یافتن یک Google Sheet نمونه که با بسته googlesheets4 ارائه می‌شود استفاده می‌کنیم.

```{r}
deaths_url <- gs4_example("deaths")
deaths <- read_sheet(deaths_url, range = "A5:F15")
#> ✔ Reading from deaths.
#> ✔ Range A5:F15.

deaths
#> # A tibble: 10 × 6
#>   Name          Profession   Age `Has kids` `Date of birth`    
#>   <chr>         <chr>      <dbl> <lgl>      <dttm>             
#> 1 David Bowie   musician      69 TRUE       1947-01-08 00:00:00
#> 2 Carrie Fisher actor         60 TRUE       1956-10-21 00:00:00
#> 3 Chuck Berry   musician      90 TRUE       1926-10-18 00:00:00
#> 4 Bill Paxton   actor         61 TRUE       1955-05-17 00:00:00
#> 5 Prince        musician      57 TRUE       1958-06-07 00:00:00
#> 6 Alan Rickman  actor         69 FALSE      1946-02-21 00:00:00
#> # ℹ 4 more rows
#> # ℹ 1 more variable: `Date of death` <dttm>
```
…
